<?xml version="1.0" encoding="UTF-8" standalone="no"?>
<!-- Generator: Adobe Illustrator 15.0.2, SVG Export Plug-In . SVG Version: 6.00 Build 0)  -->

<svg
   xmlns:dc="http://purl.org/dc/elements/1.1/"
   xmlns:cc="http://creativecommons.org/ns#"
   xmlns:rdf="http://www.w3.org/1999/02/22-rdf-syntax-ns#"
   xmlns:svg="http://www.w3.org/2000/svg"
   xmlns="http://www.w3.org/2000/svg"
   xmlns:sodipodi="http://sodipodi.sourceforge.net/DTD/sodipodi-0.dtd"
   xmlns:inkscape="http://www.inkscape.org/namespaces/inkscape"
   version="1.1"
   id="Layer_1"
   x="0px"
   y="0px"
   width="306px"
   height="432px"
   viewBox="0 0 306 432"
   enable-background="new 0 0 306 432"
   xml:space="preserve"
   inkscape:version="0.48.3.1 r9886"
   sodipodi:docname="tikigiki_people-woman-002.svg"><defs
   id="defs3345" /><sodipodi:namedview
   pagecolor="#ffffff"
   bordercolor="#666666"
   borderopacity="1"
   objecttolerance="10"
   gridtolerance="10"
   guidetolerance="10"
   inkscape:pageopacity="0"
   inkscape:pageshadow="2"
   inkscape:window-width="1600"
   inkscape:window-height="824"
   id="namedview3343"
   showgrid="false"
   inkscape:zoom="0.77546296"
   inkscape:cx="334.64322"
   inkscape:cy="193.6918"
   inkscape:window-x="0"
   inkscape:window-y="24"
   inkscape:window-maximized="1"
   inkscape:current-layer="_x23_69639fff" />

<g
   id="g3251">
	<g
   id="_x23_ffffffff">
		<path
   fill="#FFFFFF"
   d="M1.998,1.998h306v69.066c-3.098-5.34-6.15-10.743-9.957-15.626c-1.184-1.506-2.379-3.052-3.982-4.142    c-2.869-1.986-6.266-2.977-9.395-4.461c-1.492-0.668-2.164-2.241-2.894-3.584c-5.326-10.297-13.271-19.507-23.544-25.146    c-3.224-1.694-6.571-3.412-10.263-3.746c-4.18-0.389-8.379,0.007-12.567-0.068c-1.002-0.027-2.043-0.104-2.93-0.611    c-2.551-1.427-4.176-4.009-6.662-5.521c-1.271-0.772-2.724-1.164-4.146-1.56c-6.91-1.839-14.078-2.46-21.205-2.773    c-2.437-0.064-4.912-0.206-7.305,0.356c-3.146,0.713-6.167,1.866-9.318,2.546c-3.244,0.704-6.297,2.062-9.19,3.651    c-2.153,1.215-4.519,2.136-6.382,3.804c-1.729,1.541-3.194,3.371-5.102,4.715c-4.149,2.997-9.188,4.31-13.709,6.602    c-4.319,2.14-8.023,5.255-11.851,8.134c-1.651,1.26-3.501,2.329-4.823,3.962c-1.87,2.285-2.918,5.11-4.805,7.378    c-1.34,1.623-3.202,2.67-4.816,3.979c-7.267,5.737-13.181,12.983-18.245,20.668c-3.355,5.089-6.374,10.385-9.292,15.731    c-4.396,7.594-6.781,16.104-10.452,24.036c-4.979,10.334-7.6,21.557-11.619,32.259c-4.545,11.45-6.805,23.645-11.3,35.109    c-0.933,2.141-1.608,4.371-2.381,6.568c-1.123-1.62-1.683-3.574-2.976-5.083c-1.658-2.12-4.148-3.294-6.219-4.941    c-3.304-2.486-7.633-3.03-11.652-2.723c-5.156,0.435-10.371,2.878-13.291,7.243c-2.178,3.645-3.166,7.867-5.407,11.484    c-2.345,3.805-4.21,7.958-4.896,12.396c-1.496,6.787-0.309,13.726,0.403,20.526c0.625,4.063-3.073,7.239-2.741,11.285    c0.275,3.129,0.336,6.284,0.93,9.376c1.67,9.556,6.649,18.785,14.67,24.502c5.207,3.868,12.117,4.864,16.904,9.362    c-1.316,2.083-3.424,3.438-5.1,5.191c-1.969,1.978-4.003,3.888-6.031,5.805c-2.585,2.842-5.234,5.653-7.382,8.85    c-1.974,3.192-4.142,6.346-5.222,9.983c-1.943,6.577-3.375,13.304-4.264,20.104c-0.269,2.09,0.243,4.161,0.531,6.221    c1.094,7.154,2.945,14.154,4.432,21.231c0.547,2.623,1.266,5.201,1.94,7.793c0.994,6.669,2.474,13.291,2.745,20.052    c0.607,5.711,1.329,11.469,3.257,16.916c0.763,2.015,1.187,4.146,2.063,6.125c1.845,3.661,3.121,7.606,5.379,11.061    c1.5-1.239,2.912-2.589,4.537-3.665c1.61-0.956,3.313-1.742,4.973-2.605c4.77-2.674,10.33-2.924,15.648-3.357    c3.114,0.186,6.287,0.398,9.256,1.431c2.574,0.904,5.197,1.688,7.674,2.853c1.645,0.793,3.443,1.215,5.105,1.975    c1.872,0.864,3.9,1.286,5.852,1.932c1.934,0.628,3.99,0.715,5.961,1.197c1.564,0.393,3.175,0.547,4.787,0.591    c2.522,0.044,4.977,0.676,7.47,0.97c4.872,0.509,9.611,1.799,14.31,3.121c5.266,1.256,10.873,1.593,16.155,0.25    c1.493-0.456,3.223-0.324,4.536-1.229c1.543-1.688,2.796-3.621,4.373-5.285c1.666-1.799,3.613-3.311,5.683-4.624    c1.992-1.377,4.055-2.669,6.293-3.61c2.897-1.223,5.916-2.251,9.063-2.575c5.676-0.57,11.379-0.352,17.07-0.445    c2.91-0.03,5.773,0.547,8.637,0.979c2.398,0.481,4.862,0.229,7.273,0.583c3.358,0.62,6.796,0.445,10.19,0.698    c2.762,0.172,5.523,0.664,8.108,1.66c2.603,1.462,5.661,1.418,8.408,2.457c2.735,0.969,5.227,2.501,7.61,4.128    c2.225,1.613,4.281,3.445,6.344,5.261c2.626,2.341,4.62,5.319,5.979,8.551c0.852,2.18,1.408,4.454,2.138,6.679H1.998V1.998z"
   id="path3254" />
		<path
   fill="#FFFFFF"
   d="M196.24,71.968c3.423-0.594,6.802-1.711,10.32-1.468c3.146,0.24,6.306-0.047,9.457,0.162    c6.998,0.837,13.902,2.541,20.427,5.214c1.812,0.779,3.375,2.001,4.845,3.291c2.034,1.799,4.393,3.247,6.153,5.343    c1.234,1.479,2.769,2.656,4.198,3.933c1.678,1.487,2.86,3.466,4.709,4.771c2.402,1.762,4.677,3.692,7.118,5.403    c1.725,1.188,3.09,2.791,4.457,4.354c0.967,1.145,1.303,2.649,1.599,4.081c0.738,3.739,0.479,7.577,0.946,11.348    c0.642,5.997-0.355,12.021-1.893,17.813c-1.227,4.452-2.398,8.92-3.654,13.365c-1.971-0.445-3.9-1.053-5.896-1.374    c-3.985-0.662-8.121-0.611-12.051,0.364c0.041,1.609,0.074,4.081,2.046,4.513c5.002,0.597,10.068-0.189,15.066,0.397    c-0.489,3.305-2.146,6.302-4.189,8.903c-1.445,1.975-3.246,3.672-4.572,5.734c1.606-0.024,3.42-0.084,4.649-1.272    c2.703-2.555,4.616-5.845,5.913-9.302c2.527-6.646,3.173-13.861,5.984-20.412c1.836-3.928,6.019-5.982,8.281-9.604    c1.306-2.021,1.78-4.429,2.972-6.503c0.894-1.522,2.603-2.231,4.148-2.906c4.56-1.833,8.919-4.205,12.749-7.283    c3.979-3.416,6.567-8.191,7.973-13.179v311.26c-1.367-6.322-2.788-12.656-3.328-19.109c-0.709-7.705-2.873-15.167-4.221-22.761    c-0.577-3.909-1.36-7.787-1.849-11.705c-0.636-4.69-1.144-9.42-2.331-14.013c-0.501-1.938-1.244-3.849-1.278-5.873    c-0.096-3.989,1.34-7.833,1.32-11.819c0.063-4.212-1.176-8.333-2.933-12.126c-0.974-2.144-2.316-4.106-3.106-6.332    c-1.637-4.521-2.013-9.357-3.325-13.962c-1.923-6.723-4.018-13.397-6.293-20.011c-0.967-2.541-1.617-5.207-2.851-7.638    c-2.391-4.345-7.035-6.842-11.599-8.369c-1.052-0.338-2.5-0.746-3.29,0.307c-0.795,0.854-0.566,2.089-0.153,3.064    c1.478,3.691,3.011,7.363,4.539,11.04c1.471,3.65,3.563,7.234,3.428,11.306c-2.232-1.38-4.008-3.334-5.88-5.133    c-3.017-3.092-5.905-6.31-8.631-9.649c-3.091-4.168-1.813-9.622-1.771-14.411c-0.876,0.729-1.751,1.458-2.677,2.123    c-0.909-1.435-1.689-2.96-2.813-4.249c0.051,2.105,0.481,4.179,1.021,6.206c0.816,3.015,1.479,6.108,2.928,8.903    c3.522,7.121,9.406,12.659,15.149,18.009c4.332,4.179,7.443,9.416,11.741,13.629c6.167,6.14,9.595,14.414,11.722,22.696    c1.037,4.438-0.614,8.92-0.178,13.386c0.869,8.798,2.107,17.558,2.926,26.362c0.196,3.192,0.695,6.386,0.528,9.592    c-5.031,0.374-10.067,2.072-15.124,1.063c-2.286-0.473-4.202-2.086-6.585-2.211c-3.803-0.389-7.463,1.061-10.784,2.747    c-2.182,1.044-4.166,2.472-6.425,3.349c-0.411-3.271-0.23-6.574-0.245-9.858c-0.029-4.077,0.558-8.181-0.156-12.228    c-0.644-3.992-1.08-8.275-3.566-11.63c-1.673-2.065-3.997-3.456-5.985-5.188c-10.713-8.637-21.59-17.213-33.683-23.886    c-3.18-1.781-6.623-3.131-9.571-5.305c-2.396-1.804-1.673-5.234-3.304-7.514c-2.925-4.212-6.689-7.739-10.171-11.479    c-1.638-1.748-3.168-3.595-4.879-5.271c-5.514-5.461-11.884-9.974-17.423-15.403c-1.962-1.924-3.396-4.279-5.075-6.43    c-3.563-4.613-7.515-9.001-12.25-12.447c-1.438-1.131-2.863-2.314-3.997-3.76c-0.688-0.972-1.319-2.236-0.875-3.433    c0.594-1.157,1.991-2.048,3.317-1.67c1.323,0.327,2.524,1.005,3.719,1.64c4.634,2.504,8.77,5.825,12.552,9.46    c8.196,8.404,18.611,14.103,27.833,21.253c2.737,2.005,5.439,4.738,9.108,4.627c-2.353-2.732-5.537-4.543-8.252-6.875    c2.999-2.288,5.976-4.627,9.105-6.729c0.462,7.168,0.102,14.414,1.282,21.529c0.271,1.512,1.432,2.632,2.581,3.557    c0.269-6.938-1.429-13.776-1.543-20.705c-0.041-2.123,0.067-4.267-0.336-6.359c-0.532-3.017-1.364-6.084-0.854-9.162    c0.351-2.207,1.618-4.407,3.749-5.328c2.052-0.893,4.297-1.168,6.477-1.606c0.468,2.402,0.343,4.859,0.557,7.289    c0.661,8.853,1.326,17.746,3.013,26.474c0.624,0.015,1.248,0.019,1.876,0.019c0.103-3.45-0.271-6.886-0.277-10.331    c-0.125-6.011-1.038-11.954-1.87-17.898c-0.233-1.869-0.457-3.896,0.429-5.64c0.817-1.582,2.517-2.453,4.169-2.926    c2.91-0.813,6.018-0.334,8.834,0.618c0.46,0.182,0.983,0.322,1.326,0.712c0.107,0.954,0.03,1.924,0.025,2.886    c-0.187,6.996,1.197,13.929,1.039,20.925c-0.021,2.729,0.388,5.447,0.983,8.11c1.53-2.163,2.039-4.841,2.021-7.442    c-0.026-3.378,0.143-6.773-0.269-10.138c-0.417-3.893-1.13-7.881-0.237-11.76c0.23-1.229,1.53-1.711,2.527-2.189    c2.389-1.04,5.336-1.667,7.701-0.243c1.937,1.188,3.786,2.519,5.665,3.793c2.12,1.55,4.446,3.089,5.618,5.528    c2.404,4.702,2.581,10.075,3.125,15.215c0.504,0.155,1.017,0.304,1.532,0.445c0.55-4.139-0.173-8.31-1.108-12.335    c-0.424-1.735-0.71-3.574-1.751-5.073c-1.466-2.123-3.586-3.651-5.462-5.386c-0.506-0.507-1.116-1.055-1.123-1.823    c-0.228-3.631,0.063-7.36-1.057-10.877c-0.572-2.035-1.942-3.814-2.12-5.961c-0.232-2.875,1.061-5.604,0.984-8.468    c-0.021-4.429-3.722-7.992-3.317-12.494c0.295-3.493,1.249-6.922,1.188-10.449c0.017-3.081-0.739-6.459-3.209-8.535    c-0.325,5.856,0.655,11.954-1.458,17.587c-1.762,4.779-3.853,9.535-7.074,13.531c-3.771,4.762-8.304,8.842-12.575,13.146    c-3.896,3.801-8.04,7.357-12.471,10.533c-1.821,1.322-3.967,2.092-5.845,3.317c-1.644,1.06-2.636,2.784-3.875,4.239    c-4.499,5.402-10.289,9.567-16.301,13.154c-0.624,0.437-1.404,0.508-2.054,0.081c-6.818-3.448-12.065-9.122-17.634-14.194    c-4.224-3.849-8.888-7.423-14.313-9.396c-1.389-0.591-3.146,0.401-4.313-0.746c-3.003-2.515-5.873-5.237-8.207-8.391    c-6.083-8.626-11.266-17.972-14.574-28.009c-1.794-5.766-3.267-11.726-3.229-17.796c0.071-7.199,0.954-14.436-0.088-21.601    c-2.107,0.808-4.234,2.028-6.578,1.664c-2.728-0.397-4.52-2.791-5.923-4.934c-3.62-5.964-3.694-13.128-4.771-19.814    c-1.323-7.984,0.793-16.25,4.919-23.136c1.98-3.291,3.813-6.969,7.158-9.096c1.666,4.535,3.373,9.096,5.903,13.239    c1.978,3.206,4.495,6.152,7.64,8.279c0.828,0.533,1.757,1.12,2.795,0.931c2.229-0.327,4.396-0.981,6.6-1.45    c-1.171-1.641-2.623-3.056-3.776-4.708c1.374,0.472,2.741,0.972,4.143,1.359c0.4-0.493,0.805-0.981,1.21-1.468    c-0.735-1.046-1.51-2.065-2.237-3.119c2.669,0.493,5.115,1.803,7.781,2.258c1.124-0.566,1.894-1.609,2.715-2.527    c-2.147-2.391-4.329-4.944-5.052-8.158c2.12,0.935,3.638,2.721,5.377,4.175c1.717,1.448,4.118,1.113,6.201,1.181    c-1.286-1.121-2.693-2.103-3.875-3.338c2.548,0.014,5.085,0.371,7.636,0.331c-2.225-3.901-6.067-6.979-6.937-11.573    c3.596,1.179,7.049,3.152,10.955,3.047c-1.119-3.554-3.169-6.767-4.016-10.414c-0.376-1.525-0.38-3.105-0.327-4.661    c2.382,2.909,3.678,6.477,5.45,9.744c0.777,0.026,1.556,0.05,2.335,0.061c-0.79-2.511-1.958-4.887-2.744-7.398    c-1.859-5.396-2.895-11.194-2.013-16.889c2.833,2.396,4.784,5.774,8.081,7.631c0.658-1.303,1.215-2.655,1.798-3.996    c2.117,0.169,4.193,0.845,6.334,0.717c1.238-0.018,2.091-1.021,3.002-1.716c2.179-1.858,4.971-2.743,7.697-3.466    C190.507,72.613,193.387,72.347,196.24,71.968 M192.352,109.05c-3.287,0.827-6.429,2.261-9.196,4.208    c3.545,0,7.009-0.847,10.511-1.271c2.156-0.276,4.287,0.412,6.275,1.171c2.573,1.083,5.146,2.439,6.98,4.593    c3.443,3.8,5.607,8.697,9.655,11.951c1.574,0.348,3.229-0.206,4.694-0.786c-2.622-9.079-10.347-16.274-19.327-19.052    C198.859,108.979,195.535,108.155,192.352,109.05 M108.895,127.872c3.684-4.077,6.924-8.9,7.73-14.435    C112.565,117.21,109.37,122.266,108.895,127.872 M120.086,123.813c-2.934,1.399-5.627,3.57-7.083,6.521    c-0.688,1.458-1.285,3.139-0.834,4.755c0.736,2.292,2.897,3.688,4.021,5.754c0.688,1.304,0.271,2.883,0.878,4.209    c0.945,1.594,2.781,2.373,4.528,2.747c0.479-3.151,1.133-6.385,0.502-9.563c-1.218,1.31-2.012,2.923-2.855,4.479    c-0.177-1.218-0.356-2.483-1.035-3.544c-0.977-1.738-2.523-3.091-3.413-4.88c0.044-1.266,0.753-2.41,1.547-3.358    c2.086-2.409,5.251-3.304,7.999-4.711c-0.767-1.077-1.61-2.143-2.721-2.892C121.07,123.329,120.575,123.596,120.086,123.813     M175.648,126.907c0.609,2.035,1.701,3.915,2.064,6.031c-2.068-1.813-3.335-4.323-5.356-6.177    c-0.044,2.592,0.027,5.285,1.086,7.698c0.642,1.323,1.479,2.798,2.929,3.341c1.635,0.087,3.171-0.638,4.66-1.222    c2.623-1.121,5.578-2.551,8.458-1.479c3.623,1.617,7.5,3.416,9.72,6.862c0.986,1.41,0.768,3.203,0.834,4.826    c0.095,2.622,0.141,5.332,1.16,7.799c2.101-4.181,2.039-9.538-0.377-13.581c-2.842-3.831-6.987-6.369-10.75-9.203    c-1.188-0.938-2.589-1.737-3.335-3.104c-0.529-1.017-0.89-2.109-1.33-3.163c-1.394,0.209-2.581,1.009-3.772,1.698    c-0.243,1.829,0.134,3.65,0.178,5.479c-2.127-2.075-2.77-5.093-3.627-7.82C177.263,125.459,176.411,126.137,175.648,126.907     M188.8,128.813c0.011,0.482,0.027,0.966,0.048,1.45c3.757,0.709,7.782,0.793,11.154,2.799c3.006,1.938,4.639,5.269,7.227,7.647    c-0.243-3.594-2.599-6.72-5.536-8.667C197.933,129.556,193.289,128.439,188.8,128.813 M180.112,142.206    c-1.153-0.982-2.131-2.167-3.413-2.99c0.333,3.618,2.109,7.104,4.813,9.541c1.684,1.404,3.804,2.575,6.057,2.508    c2.33-0.587,4.446-2.324,5.241-4.616c0.457-1.775,0.007-3.699-0.806-5.306c-1.159-1.616-3.155-2.567-5.112-2.754    C184.133,138.523,182.077,140.569,180.112,142.206 M112.287,148.183c0.007,3.214-0.188,6.964,2.232,9.457    c0.339-3.041,0.063-6.123-0.244-9.152C114.153,147.48,112.918,148.213,112.287,148.183 M233.293,157.508    c-2.822,0.827-4.808,3.21-6.131,5.711c-3.07,5.406-4.166,11.819-3.504,17.965c0.428,3.879,2.204,7.551,2.039,11.503    c-0.068,1.354-0.241,2.908-1.415,3.79c-3.664,3.107-9.2,2.261-12.775,5.515c-2.188,2.217-3.159,5.332-3.675,8.326    c0.573-0.018,1.153-0.034,1.737-0.047c0.845-2.021,1.362-4.628,3.575-5.616c4.187-1.395,8.83-0.911,12.895-2.762    c3.003-1.64,5.144-5.207,4.346-8.656c-1.488-7.081-3.533-14.168-3.319-21.469c0.057-1.411-0.034-2.937,0.76-4.175    c1.343-2.181,2.999-4.223,5.108-5.711c2.459-1.789,5.61-2.16,8.572-2.18c1.809,0.017,3.674-0.017,5.41,0.57    c2.216,0.772,3.735,2.67,5.765,3.763c-0.617-2.784-2.711-5.515-5.698-5.913C242.486,157.4,237.794,156.145,233.293,157.508     M236.95,164.727c2.98,1.891,6.729,2.025,9.705,3.937c1.707,1.1,2.884,3.084,2.806,5.129c-0.313,2.677-3.114,4.155-3.636,6.76    c-0.408,1.685,1,3.558,2.787,3.459c2.815-0.044,5.347-1.58,8.169-1.656c-1.221-0.915-2.629-1.542-3.85-2.457    c2.234-0.636,4.568-0.732,6.846-1.158c0.021-0.958-0.023-1.917-0.111-2.869c-2.135-0.041-4.211,0.537-6.338,0.594    c1.643-1.06,3.579-1.542,5.219-2.604c-1.603-0.871-3.44-1.158-5.039-2.032c1.127-0.662,2.342-1.141,3.539-1.65    c-0.306-0.284-0.666-0.51-1.049-0.662c-2.588-1.032-4.605-3.267-7.446-3.688C244.722,165.196,240.844,164.548,236.95,164.727     M228.699,168.092c-0.801,1.499-0.702,3.301-0.36,4.914c0.496,2.394,2.423,4.186,4.462,5.38c2.811,1.473,6.106,0.783,9.078,0.277    c-1.082-0.159-2.161-0.312-3.236-0.49c1.104-2.788,2.515-5.683,1.91-8.774c-0.262-1.029-0.373-2.603-1.683-2.784    c-2.006-0.523-4.104-0.938-6.183-0.699C231.169,166.124,229.51,166.708,228.699,168.092 M202.184,190.748    c0.024,0.82,0.093,1.637,0.188,2.454c2.741,0.79,5.594,1.299,8.444,1.502C209.512,191.362,205.438,190.37,202.184,190.748     M202.984,204.316c-0.034,1.487-0.018,2.977,0.033,4.465c0.435,0,0.872-0.007,1.311-0.019c0.38-1.524,0.723-3.058,0.953-4.605    C204.511,204.194,203.748,204.248,202.984,204.316 M177.649,205.534c0.568,1.822,1.829,3.385,3.45,4.394    c3.781,2.428,8.497,2.667,12.368,4.904c1.555,0.904,2.559,2.447,3.569,3.881c1.074,1.677,2.185,3.385,2.737,5.318    c-2.992-0.462-5.275-2.6-7.933-3.852c-1.646-0.815-3.576-0.731-5.211-1.572c-2.846-1.42-4.805-4.07-7.562-5.622    c0.937,5.545,4.796,10.114,9.111,13.517c3.147,2.373,6.366,4.965,10.307,5.862c0.872,0.147,1.913,0.489,2.655-0.187    c1.74-1.303,3.265-2.898,5.181-3.962c1.479-0.896,3.21-1.396,4.509-2.579c0.849-0.719,0.521-1.942,0.476-2.904    c-0.521-3.75-2.09-7.317-2.042-11.151c-0.233,0.017-0.705,0.047-0.939,0.064c-1.096,0.995-1.41,2.458-1.934,3.776    c-1.153,0.128-2.313,0.192-3.475,0.148c-1.242-1.586-2.086-3.514-3.705-4.779c-1-0.81-2.315-0.982-3.531-1.259    c-4.34-0.948-8.693-1.826-13.017-2.842C180.994,206.307,179.355,205.757,177.649,205.534 M145.109,241.238    c0.838,1.873,2.541,3.154,3.977,4.563c0.79,0.898,2.069,0.684,3.061,0.287c-0.879-2.438-2.216-4.674-3.532-6.897    c-0.31-0.361-0.54-1.025-1.1-0.979C145.936,238.065,144.427,239.692,145.109,241.238z"
   id="path3256" />
		<path
   fill="#FFFFFF"
   d="M109.139,167.299c2.596,0.224,5.188,0.503,7.792,0.581c-0.139,4.874-0.414,9.768,0.109,14.634    c0.577,6.827,1.954,13.574,3.861,20.152c2.218,7.594,7.429,13.773,10.917,20.773c2.564,5.127,6.821,9.126,9.764,14.007    c0.542,0.756,1.455,1.086,2.229,1.552c0.072,1.539,0.269,3.149,1.249,4.404c2.688,3.691,6.15,6.736,9.004,10.294    c4.619,5.619,8.8,11.649,14.149,16.636c1.655,1.64,3.604,2.936,5.4,4.411c-0.554,4.597-2.113,9.119-1.699,13.804    c0.213,3.287,2.056,6.21,4.196,8.62c1.18-2.106,1.4-4.57,1.563-6.93c0.278-3.273-0.037-6.588,0.563-9.834    c1.662,0.448,3.009,1.582,4.28,2.688c2.057,1.803,3.572,4.098,5.322,6.177c2.593,3.176,5.276,6.288,7.566,9.688    c0.851,1.084,0.264,2.508,0.354,3.757c-0.148,3.511,1.696,6.648,2.312,10.023c-8.749,2.663-17.166,6.555-26.254,7.992    c-2.298,0.29-4.655,0.645-6.958,0.308c-3.848-1.587-6.205-5.23-8.658-8.387c-1.839-2.528-4.197-4.602-6.354-6.846    c-8.104-8.244-15.786-16.952-24.67-24.4c-3.358-2.883-7.057-5.332-10.517-8.087c-8.664-6.618-17.598-12.939-27.174-18.194    c-1.15-0.645-2.385-1.157-3.426-1.98c2.799-4.389,6.194-8.381,8.803-12.896c2.925-4.855,5.466-9.963,7.339-15.314    c2.563-7.034,4.172-14.354,5.817-21.635c2.521-8.939,2.161-18.306,2.478-27.492C108.718,172.969,108.586,170.1,109.139,167.299     M161.166,295.734c0.491,2.977,1.533,5.836,2.632,8.637c1.825,4.381,4.376,8.839,8.617,11.293    c-0.17-3.004-1.272-5.854-2.552-8.542c-2.012-4.014-4.598-7.695-6.784-11.606C162.436,295.556,161.797,295.626,161.166,295.734z"
   id="path3258" />
		<path
   fill="#ECCFE0"
   d="M260.619,372.688c4.715-1.881,9.729-2.971,14.736-3.772c-0.277,1.883-0.266,3.86-0.997,5.646    c-0.728,1.612-2.688,1.815-4.2,2.215c-3.076,0.609-6.137,1.391-9.271,1.637C260.859,376.498,260.551,374.602,260.619,372.688     M270.087,371.669c-0.281,0.546,0.252,1.322,0.882,1.124c1.008-0.055,1.32-1.161,1.15-1.992    C271.399,370.933,270.287,370.724,270.087,371.669 M267.39,372.891c-0.142,0.776-0.232,1.572-0.166,2.369    c0.604-0.125,1.208-0.253,1.818-0.371c0.037-0.701,0.051-1.403,0.034-2.1C268.51,372.796,267.95,372.84,267.39,372.891     M262.657,375.05c-0.247,0.797,0.732,1.158,1.215,1.595c0.237-0.54,0.461-1.084,0.668-1.631    C263.939,374.723,263.146,374.382,262.657,375.05z"
   id="path3260"
   style="fill:#e2df9a;fill-opacity:1" />
		<path
   fill="#FFFFFF"
   d="M284.587,373.788c3.497-0.263,6.948-0.896,10.401-1.468c2.85,4.906,2.833,10.77,3.433,16.247    c0.299,3.642,1.53,7.11,2.164,10.691c0.594,2.858,0.879,5.769,1.17,8.67c0.282,2.313,0.815,4.782,2.49,6.519    c0.96,1.019,2.463,0.998,3.753,1.197v18.354h-56.359c0.282-6.75,1.109-13.459,1.92-20.162c0.433-3.349,0.242-6.732,0.533-10.091    c0.225-5.553,0.406-11.104,0.672-16.653c0.222-2.922,0.059-5.869,0.476-8.773c3.162,0.547,6.086,2.163,9.336,2.273    c2.239,0.137,4.339-0.766,6.473-1.293c2.073-0.543,4.241-1.097,5.938-2.47c0.937-0.746,1.517-1.84,2.448-2.575    C281.127,373.913,282.874,374.004,284.587,373.788z"
   id="path3262" />
	</g>
	<g
   id="_x23_000000ff">
		<path
   d="M193.149,4.182c2.393-0.563,4.868-0.422,7.305-0.356c7.127,0.313,14.295,0.935,21.205,2.773    c1.423,0.396,2.874,0.787,4.146,1.56c2.486,1.512,4.111,4.094,6.662,5.521c0.887,0.506,1.928,0.584,2.93,0.611    c4.188,0.075,8.389-0.32,12.567,0.068c3.69,0.334,7.039,2.052,10.263,3.745c10.272,5.641,18.218,14.851,23.543,25.147    c0.729,1.343,1.401,2.916,2.895,3.584c3.129,1.485,6.523,2.474,9.395,4.461c1.604,1.09,2.8,2.636,3.982,4.142    c3.807,4.884,6.859,10.286,9.957,15.626v26.588c-1.404,4.987-3.993,9.764-7.973,13.179c-3.83,3.078-8.189,5.451-12.749,7.283    c-1.548,0.675-3.257,1.384-4.148,2.906c-1.191,2.074-1.666,4.481-2.972,6.503c-2.264,3.622-6.445,5.677-8.281,9.604    c-2.813,6.551-3.457,13.768-5.984,20.412c-1.297,3.457-3.21,6.747-5.913,9.302c-1.229,1.188-3.043,1.249-4.649,1.272    c1.326-2.063,3.127-3.761,4.572-5.734c2.043-2.602,3.7-5.599,4.189-8.903c-4.998-0.587-10.064,0.199-15.067-0.397    c-1.971-0.433-2.004-2.903-2.045-4.514c3.93-0.976,8.064-1.025,12.051-0.363c1.994,0.32,3.926,0.928,5.896,1.374    c1.256-4.445,2.429-8.913,3.654-13.365c1.536-5.792,2.533-11.816,1.893-17.813c-0.469-3.77-0.208-7.606-0.947-11.347    c-0.295-1.431-0.631-2.937-1.598-4.081c-1.367-1.563-2.732-3.166-4.457-4.354c-2.441-1.711-4.716-3.643-7.118-5.403    c-1.849-1.306-3.031-3.284-4.709-4.771c-1.431-1.276-2.964-2.454-4.198-3.933c-1.762-2.096-4.119-3.544-6.153-5.343    c-1.47-1.289-3.033-2.511-4.845-3.291c-6.523-2.673-13.429-4.377-20.427-5.214c-3.151-0.209-6.311,0.078-9.458-0.162    c-3.519-0.243-6.896,0.874-10.319,1.468c-2.854,0.378-5.733,0.646-8.517,1.411c-2.728,0.722-5.52,1.606-7.696,3.466    c-0.912,0.695-1.765,1.698-3.002,1.715c-2.142,0.128-4.218-0.547-6.335-0.716c-0.582,1.34-1.14,2.693-1.798,3.996    c-3.297-1.855-5.248-5.234-8.081-7.631c-0.882,5.694,0.152,11.492,2.013,16.889c0.787,2.512,1.955,4.888,2.745,7.398    c-0.78-0.01-1.559-0.034-2.335-0.062c-1.773-3.267-3.069-6.834-5.451-9.743c-0.053,1.556-0.048,3.135,0.328,4.66    c0.846,3.648,2.896,6.861,4.015,10.415c-3.905,0.105-7.358-1.87-10.955-3.047c0.869,4.593,4.712,7.671,6.938,11.573    c-2.552,0.041-5.089-0.317-7.637-0.331c1.182,1.235,2.589,2.217,3.875,3.338c-2.083-0.067-4.484,0.268-6.201-1.181    c-1.74-1.455-3.257-3.24-5.377-4.175c0.724,3.213,2.904,5.768,5.052,8.157c-0.821,0.918-1.591,1.961-2.714,2.528    c-2.666-0.456-5.112-1.765-7.782-2.258c0.729,1.053,1.502,2.073,2.237,3.119c-0.406,0.485-0.81,0.976-1.21,1.468    c-1.4-0.388-2.769-0.888-4.143-1.36c1.153,1.653,2.605,3.068,3.776,4.708c-2.202,0.47-4.369,1.124-6.6,1.451    c-1.038,0.189-1.967-0.397-2.795-0.931c-3.145-2.127-5.662-5.073-7.64-8.279c-2.53-4.145-4.237-8.704-5.903-13.24    c-3.345,2.126-5.177,5.806-7.158,9.097c-4.125,6.885-6.241,15.149-4.919,23.136c1.075,6.686,1.15,13.851,4.771,19.814    c1.403,2.144,3.195,4.535,5.923,4.934c2.344,0.365,4.471-0.857,6.578-1.664c1.042,7.165,0.159,14.401,0.088,21.6    c-0.038,6.072,1.435,12.032,3.229,17.797c3.309,10.036,8.491,19.383,14.574,28.009c2.334,3.151,5.204,5.876,8.207,8.391    c1.167,1.147,2.924,0.155,4.313,0.746c5.425,1.974,10.089,5.548,14.313,9.396c5.567,5.072,10.814,10.745,17.634,14.194    c0.648,0.426,1.43,0.354,2.054-0.081c6.012-3.587,11.802-7.752,16.301-13.154c1.239-1.455,2.231-3.181,3.875-4.239    c1.878-1.227,4.022-1.995,5.845-3.317c4.432-3.176,8.573-6.732,12.471-10.533c4.271-4.304,8.804-8.384,12.575-13.146    c3.224-3.996,5.313-8.751,7.074-13.531c2.113-5.633,1.133-11.731,1.458-17.587c2.47,2.076,3.226,5.454,3.209,8.535    c0.063,3.526-0.893,6.956-1.188,10.449c-0.403,4.502,3.298,8.065,3.317,12.493c0.075,2.865-1.218,5.594-0.983,8.469    c0.177,2.146,1.547,3.926,2.119,5.961c1.12,3.517,0.829,7.246,1.057,10.877c0.007,0.77,0.617,1.315,1.123,1.823    c1.876,1.733,3.996,3.263,5.462,5.386c1.041,1.499,1.327,3.338,1.751,5.073c0.937,4.025,1.659,8.196,1.108,12.335    c-0.517-0.143-1.028-0.29-1.532-0.445c-0.543-5.14-0.721-10.513-3.125-15.215c-1.172-2.439-3.498-3.979-5.618-5.528    c-1.879-1.275-3.729-2.604-5.665-3.793c-2.365-1.424-5.313-0.797-7.701,0.243c-0.997,0.479-2.297,0.962-2.527,2.189    c-0.893,3.878-0.18,7.867,0.237,11.76c0.41,3.363,0.241,6.76,0.269,10.138c0.018,2.603-0.491,5.279-2.021,7.441    c-0.597-2.662-1.004-5.38-0.983-8.109c0.158-6.996-1.226-13.929-1.038-20.925c0.004-0.962,0.081-1.932-0.026-2.887    c-0.343-0.389-0.866-0.529-1.326-0.712c-2.815-0.951-5.924-1.432-8.834-0.617c-1.652,0.473-3.352,1.344-4.169,2.926    c-0.886,1.742-0.662,3.771-0.429,5.64c0.832,5.944,1.745,11.888,1.87,17.898c0.006,3.444,0.38,6.881,0.277,10.331    c-0.628,0-1.252-0.004-1.876-0.019c-1.687-8.728-2.352-17.621-3.013-26.474c-0.214-2.43-0.089-4.887-0.557-7.289    c-2.18,0.438-4.425,0.715-6.477,1.605c-2.131,0.922-3.398,3.121-3.749,5.329c-0.51,3.078,0.322,6.146,0.854,9.162    c0.403,2.093,0.295,4.236,0.336,6.359c0.115,6.929,1.812,13.767,1.543,20.705c-1.149-0.925-2.311-2.045-2.581-3.558    c-1.181-7.114-0.82-14.36-1.282-21.528c-3.131,2.103-6.105,4.44-9.105,6.729c2.715,2.332,5.899,4.143,8.252,6.875    c-3.668,0.111-6.371-2.622-9.108-4.627c-9.222-7.15-19.637-12.849-27.833-21.253c-3.782-3.635-7.918-6.956-12.552-9.46    c-1.194-0.635-2.396-1.313-3.719-1.64c-1.326-0.378-2.724,0.513-3.317,1.67c-0.444,1.194,0.187,2.461,0.875,3.433    c1.133,1.444,2.558,2.629,3.997,3.76c4.735,3.446,8.688,7.833,12.25,12.447c1.68,2.149,3.114,4.506,5.075,6.429    c5.54,5.432,11.909,9.943,17.423,15.404c1.711,1.677,3.241,3.523,4.879,5.271c3.48,3.738,7.246,7.267,10.171,11.479    c1.631,2.278,0.906,5.71,3.304,7.513c2.948,2.175,6.393,3.523,9.571,5.306c12.093,6.673,22.97,15.249,33.683,23.886    c1.988,1.731,4.313,3.122,5.985,5.188c2.486,3.354,2.924,7.638,3.567,11.63c0.713,4.047,0.126,8.149,0.155,12.228    c0.015,3.284-0.166,6.588,0.245,9.858c2.259-0.877,4.243-2.306,6.425-3.349c3.321-1.688,6.981-3.136,10.784-2.747    c2.383,0.124,4.299,1.738,6.585,2.21c5.057,1.011,10.094-0.688,15.124-1.063c0.167-3.206-0.332-6.399-0.528-9.592    c-0.817-8.807-2.057-17.564-2.926-26.362c-0.438-4.466,1.216-8.947,0.178-13.386c-2.127-8.282-5.555-16.559-11.722-22.696    c-4.298-4.213-7.409-9.45-11.741-13.629c-5.743-5.35-11.627-10.888-15.149-18.009c-1.449-2.795-2.11-5.891-2.928-8.903    c-0.54-2.028-0.972-4.101-1.021-6.206c1.123,1.289,1.903,2.814,2.813,4.249c0.926-0.665,1.801-1.394,2.677-2.123    c-0.044,4.789-1.32,10.243,1.771,14.411c2.726,3.341,5.614,6.559,8.631,9.649c1.872,1.799,3.646,3.753,5.88,5.133    c0.136-4.07-1.957-7.654-3.428-11.306c-1.528-3.677-3.063-7.349-4.539-11.04c-0.413-0.977-0.642-2.21,0.153-3.064    c0.79-1.053,2.238-0.646,3.29-0.307c4.563,1.527,9.208,4.024,11.599,8.368c1.232,2.432,1.884,5.098,2.851,7.639    c2.275,6.611,4.37,13.288,6.293,20.011c1.313,4.604,1.688,9.44,3.325,13.962c0.79,2.225,2.134,4.188,3.106,6.332    c1.757,3.793,2.995,7.914,2.933,12.126c0.02,3.986-1.416,7.83-1.32,11.819c0.034,2.024,0.777,3.936,1.278,5.873    c1.188,4.593,1.695,9.32,2.331,14.013c0.487,3.918,1.271,7.796,1.849,11.705c1.348,7.594,3.512,15.056,4.221,22.761    c0.54,6.453,1.961,12.787,3.328,19.109v6.731c-1.29-0.198-2.793-0.179-3.753-1.196c-1.675-1.735-2.208-4.206-2.49-6.519    c-0.291-2.901-0.576-5.812-1.17-8.67c-0.634-3.581-1.865-7.051-2.164-10.692c-0.6-5.478-0.583-11.34-3.433-16.246    c-3.453,0.572-6.904,1.205-10.401,1.468c-1.713,0.216-3.46,0.125-5.152,0.466c-0.934,0.735-1.514,1.829-2.449,2.575    c-1.696,1.373-3.864,1.927-5.938,2.47c-2.134,0.527-4.232,1.429-6.473,1.293c-3.25-0.111-6.174-1.728-9.336-2.273    c-0.417,2.904-0.254,5.853-0.475,8.773c-0.267,5.549-0.448,11.102-0.673,16.653c-0.291,3.356-0.102,6.742-0.532,10.091    c-0.812,6.703-1.639,13.412-1.92,20.162h-0.271c-0.729-2.225-1.286-4.499-2.138-6.679c-1.065-3.059-0.105-6.237,0.228-9.322    c1.037-8.641,2.057-17.368,1.468-26.075c-2.517-0.543-5.332-0.145-7.566-1.627c-1.646-1.076-2.042-3.128-2.501-4.891    c-0.627-2.927-1.241-5.89-2.571-8.593c-3.633-7.991-7.236-16.063-12.128-23.386c-2.3,1.553-4.479,3.287-6.612,5.057    c0.91,2.287,2.346,4.31,3.513,6.47c3.185,5.434,6.378,10.932,8.46,16.897c2.257,7.271,3.62,14.786,4.635,22.316    c0.367,3.101,0.814,6.209,0.757,9.342c-2.385-1.627-4.875-3.159-7.609-4.128c-2.747-1.039-5.808-0.995-8.409-2.457    c-1.34-8.846-4.657-17.22-7.979-25.481c-1.974-4.806-4.741-9.228-7.137-13.822c-0.77-1.404-1.164-3.012-2.111-4.312    c-0.8-0.441-1.723-0.577-2.598-0.793c-2.412-0.517-4.719-1.394-7.101-2.015c3.393,5.322,6.185,10.98,9.104,16.563    c1.371,2.872,2.227,5.946,3.202,8.965c0.82,2.541,2.209,4.847,3.132,7.348c1.461,3.856,2.591,7.84,3.378,11.887    c-3.395-0.253-6.832-0.078-10.189-0.698c-2.412-0.354-4.875-0.102-7.274-0.584c-0.81-3.125-1.308-6.339-2.411-9.387    c-0.808-2.442-2.079-4.69-3.094-7.05c-3.168-7.169-6.178-14.449-10.276-21.158c-0.974-1.553-1.865-3.401-3.636-4.182    c-1.154-0.496-2.201,0.463-2.977,1.198c-1.163,1.222-2.4,2.511-2.935,4.146c0.313,1.647,1.445,2.99,2.186,4.465    c4.424,8.165,8.881,16.325,12.77,24.76c0.916,1.965,1.537,4.066,1.736,6.228c-5.691,0.095-11.396-0.125-17.07,0.445    c-2.036-6.199-5.189-11.976-8.871-17.354c-3.439-4.992-6.395-10.284-9.569-15.439c-2.959-5.026-6.684-9.535-10.131-14.224    c-4.59-6.064-9.189-12.146-13.169-18.63c-1.513-2.491-3.778-4.448-6.31-5.869c-2.032-1.147-4.441-1.455-6.398-2.751    c-2.334-1.468-3.979-3.948-4.443-6.655c-0.388-1.873-0.339-3.878-1.214-5.623c-0.727-1.431-2.508-1.541-3.905-1.791    c-3.349-0.442-6.826-1.232-9.475-3.442c-1.105-0.874-1.935-2.076-2.334-3.422c-0.967-3.126-1.119-6.464-2.367-9.513    c-3.084,0.336-6.348,1.749-9.34,0.206c-5.588-2.982-11.016-6.863-17.496-7.58c-4.901-0.488-9.813-1.163-14.752-1.02    c-4.729-0.021-9.869-0.172-14.008,2.471c-2.904,1.674-4.861,4.624-5.802,7.779c-2.086,8.161-3.608,16.615-2.897,25.063    c0.906,6.496,4.808,11.969,7.516,17.797c1.73,3.5,2.625,7.316,3.915,10.981c2.11,6.203,4.353,12.366,6.95,18.384    c1.398,3.47,3.258,6.729,4.688,10.183c2.151,6.008,5.289,11.609,8.771,16.945c1.373,2.17,2.957,4.216,4.132,6.512    c-5.319,0.435-10.88,0.685-15.649,3.356c-3.701-5.623-5.96-12.015-8.633-18.149c-1.197-2.832-2.704-5.521-3.854-8.373    c-1.164-2.67-2.172-5.479-4.024-7.773c0.269,6.98,1.174,13.929,2.521,20.783c0.295,1.54,0.729,3.104,1.689,4.385    c1.109,1.479,2.422,2.814,3.321,4.448c1.36,2.413,2.741,4.819,4.006,7.287c-1.625,1.076-3.036,2.426-4.536,3.665    c-2.259-3.453-3.535-7.398-5.38-11.062c-0.875-1.978-1.3-4.109-2.063-6.125c-1.928-5.446-2.649-11.205-3.257-16.916    c-0.271-6.76-1.75-13.382-2.745-20.051c-0.675-2.592-1.394-5.17-1.94-7.793c-1.486-7.077-3.339-14.077-4.431-21.232    c-0.289-2.059-0.801-4.131-0.533-6.22c0.89-6.801,2.32-13.527,4.266-20.104c1.079-3.64,3.247-6.791,5.221-9.983    c2.147-3.196,4.797-6.008,7.383-8.85c2.027-1.917,4.063-3.827,6.03-5.806c1.677-1.755,3.783-3.107,5.099-5.19    c-4.786-4.498-11.696-5.494-16.903-9.362c-8.021-5.717-13-14.947-14.669-24.502c-0.594-3.092-0.655-6.247-0.93-9.376    c-0.332-4.046,3.365-7.222,2.74-11.286c-0.712-6.8-1.899-13.739-0.404-20.525c0.687-4.438,2.552-8.594,4.896-12.396    c2.242-3.618,3.229-7.84,5.407-11.485c2.921-4.363,8.135-6.808,13.292-7.242c4.02-0.309,8.35,0.235,11.652,2.723    c2.068,1.647,4.56,2.822,6.219,4.941c1.292,1.508,1.852,3.462,2.975,5.083c0.773-2.197,1.449-4.429,2.381-6.568    c4.496-11.465,6.756-23.659,11.301-35.11c4.021-10.702,6.64-21.924,11.619-32.258c3.67-7.931,6.056-16.442,10.451-24.037    c2.918-5.346,5.938-10.642,9.292-15.73c5.065-7.686,10.979-14.932,18.245-20.668c1.615-1.311,3.479-2.356,4.817-3.979    c1.886-2.268,2.935-5.093,4.804-7.378c1.323-1.634,3.171-2.704,4.824-3.962c3.827-2.879,7.531-5.994,11.85-8.134    c4.521-2.292,9.561-3.604,13.709-6.603c1.906-1.343,3.372-3.172,5.103-4.715c1.862-1.667,4.228-2.588,6.382-3.803    c2.894-1.59,5.946-2.947,9.189-3.652C186.982,6.048,190.005,4.895,193.149,4.182 M109.139,167.299    c-0.553,2.801-0.421,5.67-0.641,8.505c-0.315,9.188,0.044,18.554-2.477,27.493c-1.646,7.279-3.254,14.601-5.818,21.634    c-1.873,5.354-4.414,10.459-7.338,15.315c-2.609,4.516-6.006,8.508-8.805,12.896c1.043,0.824,2.276,1.337,3.427,1.981    c9.577,5.255,18.51,11.576,27.174,18.194c3.46,2.755,7.158,5.204,10.517,8.087c8.885,7.447,16.565,16.155,24.67,24.4    c2.157,2.244,4.516,4.316,6.354,6.846c2.453,3.154,4.812,6.8,8.658,8.387c2.303,0.337,4.661-0.019,6.958-0.309    c9.088-1.438,17.505-5.328,26.254-7.991c-0.614-3.375-2.46-6.515-2.312-10.023c-0.092-1.249,0.495-2.673-0.354-3.757    c-2.29-3.401-4.975-6.514-7.566-9.689c-1.75-2.078-3.267-4.374-5.322-6.176c-1.271-1.106-2.618-2.241-4.28-2.688    c-0.602,3.245-0.285,6.561-0.563,9.834c-0.162,2.358-0.384,4.822-1.563,6.93c-2.142-2.41-3.983-5.333-4.196-8.62    c-0.414-4.685,1.146-9.207,1.699-13.804c-1.798-1.477-3.745-2.771-5.4-4.411c-5.351-4.985-9.53-11.018-14.149-16.636    c-2.854-3.558-6.316-6.603-9.003-10.294c-0.98-1.256-1.178-2.865-1.249-4.404c-0.773-0.466-1.687-0.796-2.229-1.552    c-2.94-4.882-7.199-8.881-9.764-14.008c-3.487-7-8.698-13.179-10.917-20.772c-1.907-6.578-3.284-13.325-3.861-20.152    c-0.522-4.867-0.248-9.761-0.109-14.634C114.326,167.802,111.734,167.521,109.139,167.299 M80.766,255.102    c-0.697,2.222-1.385,4.504-2.851,6.365c-3.674,4.981-9.351,7.797-14.506,10.962c0.905,3.648,2.612,7.462,5.978,9.484    c2.781,1.785,6.221,1.6,9.309,2.471c0.808,0.246,1.793,0.418,2.236,1.226c2.12,3.397,1.092,7.766,3.131,11.2    c3.176-0.27,6.246-1.262,9.428-1.453c2.802,3.54,2.71,8.296,4.197,12.383c0.414,1.046,0.811,2.292,1.912,2.813    c3.298,1.671,7.183,0.695,10.589,1.958c0.926,0.337,1.868,0.845,2.341,1.755c1.692,2.994,1.34,6.574,2.363,9.774    c0.554,1.667,1.555,3.429,3.288,4.09c2.938,0.729,5.651-1.407,8.589-0.958c0.981,0.139,1.854,0.782,2.295,1.66    c1.794,3.598,1.827,7.844,3.903,11.326c0.658,1.121,1.659,2.259,3.054,2.336c2.351,0.162,4.28-1.407,6.438-2.031    c1.052,0.455,1.744,1.443,2.51,2.257c1.377,1.522,2.512,3.423,2.314,5.557c-0.472,4.965,2.175,9.787,6.028,12.802    c3.352,2.585,7.602,4.191,11.88,3.948c1.45-0.055,2.63-1.039,3.667-1.954c1.683-1.461,2.877-3.533,4.908-4.558    c2.243,0.103,4.137,1.547,6.091,2.509c2.105,1.168,4.644,2.292,7.063,1.45c2.389-1.747,3.28-4.733,4.798-7.15    c1.812,0.638,3.256,1.954,4.986,2.761c1.618,0.817,3.664,1.367,5.384,0.557c2.142-1.414,3.775-3.444,5.781-5.03    c1.224-0.949,2.628-2.182,4.311-1.779c2.732,0.493,4.304,3.008,6.563,4.344c4.098-2.439,4.783-7.496,6.862-11.374    c3.438,0.125,6.666,1.59,10.078,1.903c1.138-3.642,2.641-7.178,4.938-10.253c-2.707-3.085-5.967-5.641-9.112-8.266    c-5.358-4.289-11.024-8.175-16.626-12.144c-4.325-2.927-9.03-5.289-13.133-8.542c-1.278-0.996-2.397-2.174-3.693-3.148    c1.359,3.327,3.249,6.514,3.748,10.129c-2.334,1.197-4.875,1.934-7.311,2.901c-8.642,3.103-17.517,5.751-26.651,6.878    c-3.782,0.574-7.401-1.568-9.878-4.246c-10.813-12.577-21.699-25.2-34.23-36.143c-9.288-7.526-18.743-14.917-29.022-21.07    C90.131,260.132,85.904,256.672,80.766,255.102 M240.742,341.081c-0.842,3.783,1.31,7.249,2.823,10.554    c2.008,4.186,3.833,8.461,5.396,12.835c0.817,2.211,1.279,4.532,2.09,6.75c0.424,0.033,0.85,0.062,1.283,0.081    c-0.163-2.953,0.196-5.898,0.04-8.853c0.136-3.261-0.322-6.629-1.987-9.491c-2.372-4.076-3.604-8.865-6.962-12.318    C242.764,339.741,240.893,339.811,240.742,341.081 M260.619,372.688c-0.068,1.914,0.24,3.811,0.268,5.725    c3.136-0.246,6.195-1.026,9.271-1.637c1.514-0.398,3.474-0.603,4.2-2.216c0.731-1.784,0.72-3.763,0.997-5.646    C270.349,369.718,265.334,370.808,260.619,372.688z"
   id="path3265" />
		<path
   d="M192.352,109.05c3.184-0.895,6.508-0.07,9.594,0.813c8.98,2.777,16.705,9.974,19.327,19.052    c-1.467,0.58-3.12,1.134-4.694,0.786c-4.048-3.253-6.212-8.15-9.655-11.951c-1.835-2.153-4.407-3.51-6.98-4.593    c-1.988-0.759-4.119-1.448-6.275-1.171c-3.502,0.425-6.966,1.271-10.511,1.271C185.924,111.311,189.064,109.876,192.352,109.05z"
   id="path3267" />
		<path
   d="M108.895,127.872c0.475-5.606,3.671-10.662,7.73-14.435C115.818,118.972,112.579,123.795,108.895,127.872z"
   id="path3269" />
		<path
   d="M120.086,123.813c0.489-0.217,0.984-0.483,1.534-0.486c1.109,0.749,1.954,1.814,2.721,2.892    c-2.748,1.408-5.913,2.303-7.999,4.711c-0.794,0.948-1.503,2.094-1.547,3.358c0.889,1.789,2.437,3.142,3.413,4.88    c0.679,1.06,0.858,2.326,1.035,3.544c0.844-1.556,1.638-3.169,2.855-4.479c0.632,3.179-0.022,6.413-0.502,9.563    c-1.747-0.375-3.583-1.153-4.528-2.747c-0.607-1.327-0.19-2.906-0.878-4.209c-1.123-2.064-3.284-3.462-4.021-5.754    c-0.451-1.617,0.146-3.297,0.834-4.755C114.458,127.383,117.152,125.212,120.086,123.813z"
   id="path3271" />
		<path
   d="M175.648,126.907c0.763-0.771,1.613-1.448,2.54-2.013c0.857,2.728,1.5,5.745,3.627,7.82    c-0.044-1.829-0.421-3.65-0.178-5.479c1.191-0.688,2.38-1.488,3.772-1.698c0.441,1.053,0.801,2.146,1.33,3.163    c0.746,1.367,2.147,2.167,3.335,3.104c3.763,2.834,7.908,5.373,10.75,9.203c2.416,4.043,2.478,9.4,0.377,13.581    c-1.021-2.467-1.065-5.177-1.16-7.799c-0.067-1.624,0.152-3.416-0.834-4.826c-2.22-3.446-6.097-5.245-9.72-6.862    c-2.88-1.072-5.835,0.358-8.458,1.479c-1.489,0.584-3.025,1.309-4.66,1.222c-1.449-0.543-2.287-2.018-2.929-3.341    c-1.059-2.413-1.131-5.105-1.086-7.698c2.021,1.854,3.287,4.364,5.356,6.177C177.351,130.822,176.259,128.942,175.648,126.907z"
   id="path3273" />
		<path
   d="M180.112,142.206c1.965-1.637,4.021-3.682,6.78-3.618c1.957,0.187,3.953,1.137,5.112,2.754    c0.813,1.606,1.263,3.53,0.806,5.306c-0.795,2.292-2.911,4.029-5.241,4.616c-2.253,0.067-4.373-1.104-6.057-2.508    c-2.704-2.437-4.48-5.923-4.813-9.541C177.981,140.039,178.959,141.224,180.112,142.206 M184.624,141.213    c-1.52,0.574-2.13,2.394-2.146,3.889c-0.16,2.489,2.618,4.491,4.959,3.897c2.789-0.972,3.854-4.931,2.119-7.236    C188.133,140.819,186.239,140.869,184.624,141.213z"
   id="path3275" />
		<path
   d="M183.545,144.686c0.902-0.844,1.836-1.73,3.013-2.177c0.479,0.074,0.858,0.398,1.272,0.631    c-0.021,1.458-0.17,2.909-0.41,4.348C185.934,146.854,184.672,145.824,183.545,144.686z"
   id="path3277" />
		<path
   d="M112.287,148.183c0.631,0.031,1.866-0.701,1.988,0.305c0.309,3.03,0.583,6.111,0.244,9.152    C112.101,155.145,112.294,151.396,112.287,148.183z"
   id="path3279" />
		<path
   d="M233.293,157.508c4.501-1.362,9.193-0.107,13.688,0.614c2.987,0.398,5.081,3.129,5.698,5.913    c-2.028-1.093-3.549-2.99-5.765-3.763c-1.736-0.587-3.604-0.554-5.41-0.57c-2.962,0.02-6.113,0.392-8.572,2.18    c-2.109,1.488-3.767,3.53-5.108,5.711c-0.794,1.238-0.703,2.765-0.76,4.175c-0.215,7.3,1.83,14.388,3.319,21.469    c0.798,3.449-1.343,7.017-4.346,8.656c-4.063,1.851-8.708,1.367-12.896,2.762c-2.212,0.988-2.729,3.595-3.574,5.616    c-0.584,0.014-1.164,0.03-1.737,0.047c0.516-2.994,1.486-6.109,3.675-8.326c3.575-3.254,9.111-2.407,12.775-5.515    c1.174-0.882,1.347-2.438,1.415-3.79c0.165-3.952-1.611-7.624-2.039-11.503c-0.662-6.146,0.434-12.559,3.504-17.965    C228.485,160.718,230.471,158.335,233.293,157.508z"
   id="path3281" />
		<path
   d="M236.95,164.727c3.894-0.179,7.771,0.47,11.602,1.101c2.841,0.422,4.858,2.656,7.446,3.688    c0.383,0.152,0.743,0.379,1.049,0.662c-1.198,0.511-2.412,0.989-3.539,1.65c1.599,0.874,3.438,1.161,5.039,2.032    c-1.64,1.063-3.576,1.545-5.219,2.604c2.127-0.058,4.203-0.635,6.338-0.594c0.088,0.952,0.132,1.91,0.111,2.869    c-2.276,0.426-4.61,0.522-6.847,1.158c1.222,0.915,2.63,1.542,3.851,2.457c-2.822,0.077-5.354,1.612-8.169,1.656    c-1.787,0.099-3.195-1.774-2.787-3.459c0.521-2.604,3.323-4.083,3.636-6.76c0.078-2.045-1.099-4.029-2.806-5.129    C243.68,166.752,239.932,166.617,236.95,164.727z"
   id="path3283" />
		<path
   d="M228.699,168.092c0.811-1.384,2.47-1.968,3.989-2.177c2.078-0.24,4.176,0.176,6.182,0.699    c1.31,0.182,1.421,1.755,1.683,2.784c0.604,3.092-0.808,5.986-1.91,8.774c1.075,0.179,2.154,0.331,3.236,0.49    c-2.972,0.506-6.269,1.195-9.078-0.277c-2.039-1.194-3.966-2.986-4.462-5.38C227.997,171.393,227.898,169.59,228.699,168.092     M229.266,170.093c0.218,1.576,0.625,3.22,1.556,4.54c1.557,1.188,3.66,1.262,5.546,1.461c0.606-2.277,1.23-4.58,1.377-6.938    c-1.903-0.439-3.833-0.803-5.78-0.989C230.727,167.987,229.737,169.084,229.266,170.093z"
   id="path3285" />
		<path
   d="M232.764,169.388c1.286,0.247,2.508,0.736,3.646,1.377c-0.54,1.294-1.238,2.516-2.072,3.64    c-1.144-0.611-2.209-1.36-3.098-2.303C231.627,171.133,232.135,170.218,232.764,169.388z"
   id="path3287" />
		<path
   d="M202.184,190.748c3.255-0.378,7.328,0.614,8.632,3.956c-2.852-0.203-5.703-0.712-8.444-1.502    C202.275,192.385,202.208,191.568,202.184,190.748z"
   id="path3289" />
		<path
   d="M202.984,204.316c0.764-0.068,1.525-0.122,2.297-0.159c-0.23,1.549-0.573,3.082-0.953,4.605    c-0.438,0.012-0.876,0.019-1.311,0.019C202.968,207.292,202.95,205.804,202.984,204.316z"
   id="path3291" />
		<path
   fill="#ED1C24"
   d="M177.649,205.534c1.706,0.223,3.345,0.772,5.018,1.158c4.322,1.016,8.677,1.894,13.017,2.842    c1.216,0.276,2.531,0.449,3.531,1.259c1.619,1.266,2.463,3.193,3.705,4.779c1.16,0.044,2.32-0.021,3.475-0.148    c0.522-1.318,0.838-2.781,1.934-3.776c0.234-0.018,0.706-0.048,0.939-0.064c-0.048,3.834,1.521,7.401,2.043,11.151    c0.047,0.962,0.372,2.187-0.477,2.904c-1.299,1.183-3.029,1.683-4.509,2.579c-1.916,1.063-3.439,2.659-5.181,3.962    c-0.742,0.676-1.783,0.334-2.655,0.187c-3.939-0.897-7.158-3.489-10.307-5.862c-4.315-3.401-8.176-7.972-9.111-13.517    c2.757,1.552,4.716,4.202,7.562,5.622c1.635,0.841,3.564,0.757,5.211,1.572c2.656,1.252,4.939,3.39,7.933,3.852    c-0.554-1.935-1.663-3.643-2.737-5.318c-1.012-1.435-2.016-2.977-3.569-3.881c-3.871-2.238-8.587-2.479-12.368-4.904    C179.479,208.919,178.219,207.356,177.649,205.534z"
   id="path3293"
   style="fill:#ff0051;fill-opacity:1" />
		<path
   fill="#ED1C24"
   d="M145.109,241.238c-0.683-1.546,0.828-3.173,2.404-3.027c0.561-0.047,0.79,0.617,1.1,0.979    c1.315,2.225,2.652,4.459,3.532,6.897c-0.991,0.396-2.271,0.611-3.061-0.287C147.649,244.395,145.947,243.111,145.109,241.238z"
   id="path3295"
   style="fill:#ff0051;fill-opacity:1" />
		<path
   d="M74.837,272.578c1.951,0.665,3.651,1.86,5.384,2.943c6.127,4.013,11.494,9.019,17.082,13.716    c3.518,3.055,7.411,5.64,10.934,8.688c9.794,8.235,18.852,17.305,28.846,25.31c2.477,2.056,5.16,3.842,7.63,5.899    c8.033,6.677,15.375,14.179,23.94,20.206c-0.088,0.867-0.243,1.731-0.485,2.578c-3.449-1.438-6.194-4.057-9.007-6.433    c-6.917-5.818-13.234-12.307-20.25-18.006c-10.421-7.985-19.951-17.033-29.806-25.688c-2.305-1.979-4.441-4.151-6.844-6.015    c-2.592-2.042-5.313-3.919-7.856-6.019c-1.555-1.266-2.985-2.666-4.542-3.925c-4.238-3.46-8.909-6.372-12.983-10.034    C75.898,274.948,75.214,273.813,74.837,272.578z"
   id="path3297" />
		<path
   d="M55.575,294.682c4.284,1.043,8.515,2.406,12.915,2.927c1.021,0.188,2.304,0.183,2.906,1.188    c3.095,4.674,4.733,10.091,7.257,15.06c1.059,2.184,2.419,4.209,3.379,6.442c3.006,6.882,6.039,13.838,10.418,19.99    c2.825,4.138,5.177,8.572,7.856,12.801c3.952,6.494,7.929,12.979,12.111,19.329c3.755,5.636,7.032,11.579,10.947,17.114    c3.729,5.515,7.613,10.925,11.175,16.551c2.734,4.381,5.485,8.806,7.48,13.578c-0.771,0.398-1.551,0.79-2.358,1.11    c-5.282,1.343-10.89,1.006-16.155-0.25c-1.187-1.438-2.531-2.747-3.616-4.271c-3-4.208-5.004-9.034-8.104-13.176    c-7.25-9.986-13.018-20.925-19.92-31.142c-4.587-7.044-8.329-14.587-12.793-21.704c-2.098-3.365-4.282-6.702-5.842-10.357    c-1.809-4.371-4.023-8.556-6.231-12.734c-2.969-5.402-5.262-11.134-7.423-16.892C57.868,305.171,56.084,300.037,55.575,294.682z"
   id="path3299" />
		<path
   d="M161.166,295.734c0.631-0.108,1.27-0.18,1.913-0.221c2.188,3.912,4.772,7.595,6.784,11.607    c1.278,2.688,2.382,5.538,2.552,8.542c-4.241-2.454-6.792-6.912-8.617-11.293C162.699,301.57,161.657,298.711,161.166,295.734z"
   id="path3301" />
		<path
   d="M34.63,297.027c2.972-0.727,6.056-0.933,9.109-0.827c1.702,0.095,3.653,0.294,4.827,1.689    c1.955,2.204,2.453,5.229,2.851,8.043c0.492,3.989,1.452,7.908,1.869,11.91c0.838,6.689,1.862,13.483,4.683,19.67    c2.94,6.716,5.055,13.83,8.908,20.118c2.71,4.374,5.014,8.979,7.525,13.463c6.035,10.896,12.511,21.617,20.473,31.249    c3.426,4.055,5.279,9.104,6.856,14.088c-1.612-0.044-3.224-0.198-4.788-0.591c-1.971-0.482-4.026-0.57-5.961-1.198    c-1.949-0.645-3.979-1.065-5.852-1.931c-1.662-0.76-3.46-1.182-5.105-1.975c-0.953-1.319-1.838-2.688-2.762-4.022    c-6.853-10.595-13.369-21.425-19.008-32.711c-2.076-4.762-4.783-9.207-7.171-13.813c-4.499-9.097-8.369-18.51-11.348-28.205    c-0.96-3.361-2.239-6.652-2.69-10.132C35.794,313.629,35.248,305.316,34.63,297.027z"
   id="path3303" />
		<path
   d="M79.227,303.898c2.078,0.797,3.801,2.225,5.584,3.507c2.851,2.108,5.652,4.278,8.496,6.398    c8.552,6.334,13.861,15.894,21.945,22.714c4.729,4.3,9.773,8.556,12.752,14.316c0.618,1.171,0.812,2.538,0.523,3.834    c-0.295,1.917-1.29,4.046-0.088,5.855c6.178,10.078,13.237,19.585,20.3,29.059c3.949,5.468,8.101,10.8,11.809,16.439    c-2.239,0.941-4.301,2.233-6.293,3.61c-2.068,1.313-4.017,2.825-5.683,4.624c-1.354-1.781-2.559-3.665-3.833-5.498    c-2.426-3.419-4.919-6.791-7.345-10.213c-3.287-4.583-6.012-9.531-9.119-14.229c-2.117-3.346-3.926-6.872-6.012-10.233    c-3.412-5.443-7.201-10.647-10.614-16.092c-2.087-3.314-3.811-6.838-5.554-10.338c-1.636-3.385-3.166-6.956-3.32-10.763    c1.23,0.007,2.463,0.07,3.69,0.147c-2.745-4.326-6.88-7.489-10.185-11.351c-3.44-3.771-6.459-8.028-10.774-10.889    C81.807,312.407,80.035,308.05,79.227,303.898z"
   id="path3305" />
		<path
   d="M196.254,343.079c11.866-3.938,22.886-10.203,35.059-13.281c-0.081,0.844,0.236,2.138-0.879,2.4    c-6.145,2.548-12.309,5.063-18.436,7.649c-4.882,1.981-9.601,4.354-14.595,6.063c-4.52,1.617-9.126,2.979-13.764,4.216    c-2.293,0.513-4.521,1.417-6.88,1.586c0-0.565,0.007-1.127,0.015-1.688c2.54-1.15,5.228-1.938,7.789-3.037    C188.38,345.462,192.261,344.078,196.254,343.079z"
   id="path3307" />
	</g>
	<g
   id="_x23_010101ff">
		<path
   fill="#010101"
   d="M188.8,128.813c4.489-0.375,9.133,0.742,12.893,3.229c2.938,1.947,5.293,5.073,5.536,8.667    c-2.588-2.379-4.221-5.71-7.227-7.647c-3.372-2.005-7.398-2.09-11.154-2.799C188.827,129.779,188.811,129.296,188.8,128.813z"
   id="path3310" />
		<path
   fill="#010101"
   d="M262.657,375.05c0.489-0.668,1.282-0.327,1.883-0.036c-0.207,0.547-0.431,1.091-0.668,1.631    C263.391,376.208,262.41,375.847,262.657,375.05z"
   id="path3312" />
	</g>
	<g
   id="_x23_69639fff">
		<path
   fill="#69639F"
   d="M184.624,141.213c1.615-0.344,3.509-0.395,4.933,0.55c1.733,2.306,0.67,6.265-2.119,7.236    c-2.341,0.594-5.119-1.408-4.959-3.897C182.494,143.606,183.104,141.787,184.624,141.213 M183.545,144.686    c1.127,1.138,2.389,2.168,3.875,2.802c0.24-1.438,0.391-2.89,0.41-4.348c-0.414-0.232-0.793-0.557-1.272-0.631    C185.381,142.955,184.447,143.843,183.545,144.686z"
   id="path3315"
   style="fill:#69639f;fill-opacity:0.94117647" />
		<path
   fill="#69639F"
   d="M229.266,170.093c0.473-1.009,1.463-2.105,2.697-1.927c1.947,0.186,3.877,0.55,5.78,0.989    c-0.146,2.358-0.771,4.661-1.377,6.938c-1.886-0.198-3.989-0.272-5.546-1.461C229.891,173.313,229.482,171.669,229.266,170.093     M232.764,169.388c-0.629,0.831-1.137,1.745-1.522,2.714c0.889,0.941,1.954,1.69,3.098,2.303c0.834-1.124,1.532-2.347,2.072-3.64    C235.27,170.124,234.05,169.634,232.764,169.388z"
   id="path3317" />
	</g>
	<g
   id="_x23_e7a6b6ff">
		<path
   fill="#E7A6B6"
   d="M80.766,255.102c5.139,1.569,9.365,5.029,13.945,7.698c10.279,6.153,19.734,13.544,29.022,21.07    c12.531,10.94,23.418,23.563,34.23,36.143c2.477,2.678,6.097,4.82,9.878,4.246c9.137-1.127,18.012-3.775,26.651-6.878    c2.436-0.969,4.977-1.704,7.311-2.901c-0.499-3.615-2.389-6.802-3.748-10.13c1.296,0.977,2.415,2.153,3.693,3.149    c4.103,3.253,8.808,5.615,13.133,8.542c5.602,3.969,11.268,7.854,16.626,12.144c3.146,2.625,6.405,5.181,9.112,8.266    c-2.297,3.075-3.8,6.61-4.938,10.253c-3.411-0.313-6.642-1.778-10.077-1.903c-2.08,3.878-2.767,8.935-6.863,11.374    c-2.259-1.336-3.829-3.851-6.563-4.344c-1.683-0.401-3.087,0.83-4.311,1.779c-2.006,1.586-3.641,3.616-5.781,5.03    c-1.72,0.812-3.766,0.262-5.384-0.557c-1.73-0.807-3.176-2.123-4.986-2.761c-1.518,2.417-2.409,5.402-4.798,7.15    c-2.419,0.842-4.956-0.282-7.063-1.45c-1.954-0.962-3.848-2.406-6.091-2.509c-2.031,1.023-3.227,3.097-4.908,4.558    c-1.037,0.915-2.217,1.899-3.667,1.954c-4.278,0.242-8.528-1.363-11.88-3.948c-3.854-3.015-6.5-7.837-6.028-12.802    c0.197-2.134-0.938-4.033-2.314-5.557c-0.767-0.813-1.458-1.802-2.51-2.257c-2.158,0.624-4.088,2.193-6.438,2.031    c-1.395-0.077-2.396-1.215-3.054-2.336c-2.076-3.482-2.109-7.729-3.903-11.326c-0.441-0.878-1.313-1.522-2.294-1.66    c-2.938-0.449-5.651,1.688-8.59,0.958c-1.732-0.661-2.733-2.423-3.287-4.09c-1.024-3.2-0.672-6.78-2.364-9.774    c-0.473-0.911-1.415-1.418-2.341-1.755c-3.406-1.263-7.291-0.287-10.588-1.958c-1.103-0.521-1.5-1.769-1.914-2.813    c-1.485-4.087-1.395-8.844-4.196-12.383c-3.183,0.191-6.252,1.185-9.429,1.453c-2.039-3.436-1.01-7.803-3.131-11.2    c-0.443-0.808-1.428-0.979-2.234-1.226c-3.088-0.871-6.527-0.686-9.309-2.471c-3.367-2.022-5.072-5.836-5.979-9.484    c5.156-3.165,10.832-5.979,14.506-10.962C79.38,259.605,80.068,257.323,80.766,255.102 M74.837,272.578    c0.376,1.235,1.062,2.37,2.042,3.224c4.075,3.662,8.746,6.574,12.982,10.034c1.558,1.259,2.988,2.659,4.543,3.925    c2.544,2.1,5.265,3.977,7.856,6.019c2.402,1.862,4.539,4.036,6.843,6.015c9.855,8.653,19.386,17.701,29.807,25.688    c7.016,5.699,13.333,12.188,20.25,18.006c2.813,2.376,5.558,4.995,9.007,6.433c0.242-0.847,0.397-1.711,0.485-2.578    c-8.565-6.027-15.907-13.529-23.94-20.206c-2.47-2.059-5.153-3.845-7.63-5.899c-9.994-8.005-19.052-17.073-28.846-25.31    c-3.521-3.048-7.416-5.633-10.935-8.688c-5.587-4.697-10.954-9.703-17.081-13.716C78.488,274.438,76.789,273.243,74.837,272.578     M196.254,343.079c-3.993,0.999-7.874,2.383-11.689,3.908c-2.563,1.101-5.249,1.887-7.789,3.037    c-0.008,0.561-0.015,1.12-0.015,1.688c2.357-0.169,4.587-1.073,6.88-1.586c4.638-1.235,9.244-2.599,13.764-4.216    c4.994-1.707,9.713-4.08,14.595-6.063c6.127-2.588,12.291-5.103,18.437-7.649c1.114-0.265,0.797-1.558,0.878-2.4    C219.14,332.876,208.12,339.141,196.254,343.079z"
   id="path3320"
   style="fill:#e2df9a;fill-opacity:1" />
	</g>
	<g
   id="_x23_ef447dff">
		<path
   fill="#EF447D"
   d="M35.824,292.811c4.139-2.643,9.279-2.489,14.008-2.471c4.939-0.145,9.852,0.53,14.753,1.021    c6.479,0.716,11.908,4.597,17.495,7.58c2.993,1.543,6.256,0.129,9.34-0.206c1.249,3.048,1.4,6.386,2.368,9.512    c0.399,1.346,1.228,2.548,2.333,3.422c2.648,2.21,6.127,3,9.475,3.442c1.398,0.25,3.18,0.36,3.905,1.792    c0.875,1.745,0.828,3.75,1.214,5.623c0.464,2.707,2.11,5.188,4.444,6.654c1.958,1.297,4.366,1.604,6.397,2.751    c2.531,1.422,4.798,3.378,6.311,5.869c3.979,6.482,8.579,12.564,13.169,18.63c3.447,4.688,7.171,9.196,10.13,14.224    c3.175,5.156,6.13,10.448,9.57,15.439c3.681,5.38,6.835,11.154,8.871,17.354c-3.146,0.324-6.164,1.354-9.063,2.575    c-3.708-5.641-7.859-10.973-11.809-16.439c-7.063-9.474-14.123-18.979-20.3-29.059c-1.201-1.811-0.207-3.938,0.088-5.855    c0.288-1.296,0.095-2.663-0.523-3.834c-2.979-5.762-8.022-10.018-12.752-14.316c-8.084-6.82-13.394-16.38-21.946-22.714    c-2.843-2.119-5.645-4.289-8.494-6.398c-1.785-1.282-3.509-2.71-5.584-3.507c0.808,4.15,2.578,8.509,6.279,10.903    c4.314,2.859,7.334,7.118,10.773,10.889c3.305,3.86,7.44,7.023,10.186,11.351c-1.228-0.077-2.459-0.142-3.69-0.147    c0.155,3.807,1.686,7.378,3.32,10.763c1.743,3.5,3.466,7.022,5.554,10.338c3.412,5.443,7.201,10.647,10.614,16.092    c2.086,3.361,3.896,6.89,6.012,10.233c3.107,4.697,5.831,9.646,9.118,14.229c2.427,3.422,4.919,6.794,7.346,10.213    c1.274,1.833,2.479,3.717,3.833,5.498c-1.577,1.664-2.829,3.599-4.373,5.285c-1.313,0.904-3.043,0.772-4.536,1.229    c0.808-0.32,1.588-0.712,2.357-1.11c-1.994-4.771-4.745-9.197-7.479-13.578c-3.563-5.626-7.446-11.036-11.175-16.551    c-3.915-5.535-7.192-11.479-10.947-17.114c-4.183-6.352-8.159-12.835-12.111-19.329c-2.681-4.229-5.031-8.663-7.856-12.801    c-4.38-6.152-7.412-13.108-10.418-19.99c-0.96-2.233-2.32-4.26-3.38-6.442c-2.522-4.969-4.162-10.386-7.256-15.06    c-0.604-1.006-1.886-0.999-2.906-1.188c-4.4-0.521-8.631-1.883-12.915-2.927c0.509,5.355,2.293,10.489,4.003,15.565    c2.16,5.758,4.455,11.488,7.423,16.892c2.208,4.18,4.423,8.363,6.231,12.734c1.561,3.655,3.746,6.992,5.842,10.357    c4.464,7.117,8.205,14.661,12.793,21.705c6.902,10.216,12.67,21.153,19.92,31.141c3.1,4.142,5.104,8.968,8.104,13.176    c1.085,1.522,2.43,2.832,3.616,4.271c-4.698-1.322-9.438-2.612-14.31-3.121c-2.493-0.294-4.946-0.926-7.471-0.969    c-1.577-4.985-3.43-10.034-6.855-14.089c-7.962-9.632-14.438-20.354-20.473-31.249c-2.512-4.484-4.814-9.089-7.525-13.463    c-3.854-6.288-5.967-13.401-8.909-20.117c-2.819-6.188-3.843-12.98-4.682-19.671c-0.417-4.002-1.378-7.921-1.869-11.909    c-0.397-2.814-0.896-5.84-2.851-8.043c-1.174-1.396-3.125-1.597-4.828-1.69c-3.053-0.104-6.137,0.102-9.108,0.827    c0.618,8.289,1.164,16.602,2.416,24.826c0.451,3.479,1.729,6.771,2.69,10.132c2.979,9.696,6.849,19.108,11.348,28.205    c2.388,4.605,5.095,9.052,7.171,13.813c5.64,11.286,12.155,22.116,19.008,32.711c0.923,1.336,1.808,2.703,2.763,4.022    c-2.478-1.164-5.1-1.947-7.675-2.853c-2.968-1.031-6.141-1.244-9.255-1.431c-1.174-2.296-2.758-4.341-4.132-6.511    c-3.481-5.336-6.619-10.938-8.771-16.946c-1.431-3.452-3.289-6.713-4.688-10.182c-2.6-6.019-4.841-12.182-6.951-18.384    c-1.289-3.665-2.185-7.482-3.915-10.982c-2.708-5.828-6.608-11.3-7.515-17.796c-0.712-8.448,0.811-16.902,2.896-25.063    C30.963,297.436,32.92,294.485,35.824,292.811z"
   id="path3323"
   style="stroke:none;stroke-opacity:1;fill:#ebe54d;fill-opacity:1" />
		<path
   fill="#EF447D"
   d="M240.742,341.081c0.15-1.271,2.021-1.34,2.684-0.442c3.358,3.453,4.59,8.242,6.962,12.318    c1.665,2.862,2.123,6.23,1.987,9.491c0.156,2.953-0.203,5.898-0.04,8.853c-0.435-0.021-0.858-0.048-1.283-0.081    c-0.811-2.218-1.271-4.539-2.09-6.75c-1.563-4.374-3.389-8.649-5.396-12.835C242.052,348.33,239.9,344.864,240.742,341.081z"
   id="path3325"
   style="fill:#ebe54d;fill-opacity:1" />
		<path
   fill="#EF447D"
   d="M219.546,358.482c2.134-1.77,4.313-3.503,6.612-5.057c4.892,7.323,8.495,15.395,12.128,23.387    c1.33,2.702,1.944,5.666,2.571,8.592c0.459,1.763,0.854,3.813,2.501,4.891c2.233,1.482,5.051,1.084,7.566,1.627    c0.588,8.707-0.431,17.437-1.468,26.075c-0.333,3.085-1.293,6.265-0.229,9.322c-1.356-3.23-3.352-6.21-5.978-8.55    c-2.063-1.815-4.119-3.647-6.344-5.262c0.058-3.133-0.391-6.241-0.757-9.342c-1.016-7.53-2.379-15.046-4.636-22.316    c-2.082-5.967-5.274-11.465-8.46-16.897C221.891,362.792,220.456,360.77,219.546,358.482z"
   id="path3327"
   style="fill:#ebe54d;fill-opacity:1" />
		<path
   fill="#EF447D"
   d="M193.964,360.501c2.382,0.621,4.688,1.498,7.102,2.015c0.875,0.217,1.798,0.352,2.598,0.793    c0.947,1.301,1.342,2.906,2.111,4.312c2.395,4.596,5.163,9.018,7.137,13.823c3.322,8.262,6.64,16.636,7.979,25.48    c-2.585-0.996-5.347-1.487-8.107-1.66c-0.787-4.047-1.917-8.028-3.378-11.887c-0.923-2.501-2.313-4.807-3.132-7.348    c-0.978-3.019-1.831-6.092-3.202-8.964C200.148,371.482,197.356,365.823,193.964,360.501z"
   id="path3329"
   style="fill:#ebe54d;fill-opacity:1" />
		<path
   fill="#EF447D"
   d="M172.923,363.403c0.775-0.735,1.822-1.694,2.978-1.198c1.77,0.779,2.662,2.629,3.636,4.182    c4.099,6.709,7.108,13.989,10.276,21.158c1.015,2.358,2.285,4.606,3.094,7.05c1.104,3.048,1.602,6.262,2.411,9.388    c-2.862-0.434-5.727-1.011-8.638-0.979c-0.198-2.16-0.819-4.263-1.735-6.227c-3.89-8.436-8.347-16.595-12.771-24.761    c-0.739-1.475-1.872-2.816-2.185-4.465C170.522,365.914,171.76,364.625,172.923,363.403z"
   id="path3331"
   style="fill:#ebe54d;fill-opacity:1" />
		<path
   fill="#EF447D"
   d="M30.936,375.516c1.854,2.295,2.86,5.104,4.024,7.773c1.149,2.852,2.656,5.541,3.854,8.373    c2.672,6.136,4.932,12.527,8.633,18.15c-1.659,0.863-3.362,1.649-4.973,2.605c-1.266-2.468-2.646-4.874-4.007-7.287    c-0.899-1.634-2.212-2.97-3.321-4.447c-0.959-1.279-1.395-2.846-1.688-4.386C32.109,389.444,31.204,382.496,30.936,375.516z"
   id="path3333"
   style="fill:#ebe54d;fill-opacity:1" />
	</g>
	<g
   id="_x23_030102ff">
		<path
   fill="#030102"
   d="M270.087,371.669c0.2-0.945,1.313-0.736,2.032-0.868c0.17,0.831-0.144,1.938-1.15,1.992    C270.339,372.991,269.806,372.215,270.087,371.669z"
   id="path3336" />
	</g>
	<g
   id="_x23_020101ff">
		<path
   fill="#020101"
   d="M267.39,372.891c0.562-0.051,1.12-0.095,1.688-0.102c0.017,0.695,0.003,1.396-0.034,2.1    c-0.609,0.118-1.214,0.246-1.818,0.371C267.156,374.463,267.248,373.667,267.39,372.891z"
   id="path3339" />
	</g>
</g>
<metadata
   id="metadata3341"><rdf:RDF><cc:Work><dc:format>image/svg+xml</dc:format><dc:type
         rdf:resource="http://purl.org/dc/dcmitype/StillImage" /><cc:license
         rdf:resource="http://creativecommons.org/licenses/publicdomain/" /><dc:publisher><cc:Agent
           rdf:about="http://openclipart.org/"><dc:title>Open Clip Art Library</dc:title></cc:Agent></dc:publisher><dc:title></dc:title><dc:date>2012-12-02T20:44:29</dc:date><dc:description /><dc:source>http://openclipart.org/detail/173498/retro-woman-2-by-tikigiki-173498</dc:source><dc:creator><cc:Agent><dc:title>TikiGiki</dc:title></cc:Agent></dc:creator><dc:subject><rdf:Bag><rdf:li>abstract</rdf:li><rdf:li>free form</rdf:li><rdf:li>freeform</rdf:li><rdf:li>retro</rdf:li><rdf:li>shape</rdf:li><rdf:li>shapes</rdf:li><rdf:li>clip art</rdf:li><rdf:li>clipart</rdf:li><rdf:li>retro</rdf:li><rdf:li>woman</rdf:li><rdf:li>women</rdf:li><rdf:li>female</rdf:li><rdf:li>1940s</rdf:li><rdf:li>1950s</rdf:li><rdf:li>housewife</rdf:li></rdf:Bag></dc:subject></cc:Work><cc:License
       rdf:about="http://creativecommons.org/licenses/publicdomain/"><cc:permits
         rdf:resource="http://creativecommons.org/ns#Reproduction" /><cc:permits
         rdf:resource="http://creativecommons.org/ns#Distribution" /><cc:permits
         rdf:resource="http://creativecommons.org/ns#DerivativeWorks" /></cc:License></rdf:RDF></metadata></svg>